CrimeReport-Vancouver
…
Top 5 Neighborhoods with High Crime Rates and Summary

The neighborhood crime analysis provides insights into the
distribution of crime incidents across neighborhoods, helping to
identify areas with high crime rates. This information can be valuable
for crime prevention and law enforcement strategies.

# Perform neighborhood analysis
neighborhood_analysis_result <- neighborhood_analysis(crime_data, top_n = 5)

# View the neighborhood summary
print("Neighborhood Summary:")
#> [1] "Neighborhood Summary:"
print(neighborhood_analysis_result$neighborhood_summary)
#> # A tibble: 25 × 2
#>    NEIGHBOURHOOD             total_crimes
#>    <chr>                            <int>
#>  1 Central Business District       110947
#>  2 <NA>                             56624
#>  3 West End                         41352
#>  4 Fairview                         32161
#>  5 Mount Pleasant                   30536
#>  6 Grandview-Woodland               27180
#>  7 Renfrew-Collingwood              26761
#>  8 Kitsilano                        26699
#>  9 Kensington-Cedar Cottage         24941
#> 10 Strathcona                       20919
#> # ℹ 15 more rows
…
